[
{
  "pk": 1, 
  "model": "contenttypes.contenttype", 
  "fields": {
    "model": "logentry", 
    "name": "log entry", 
    "app_label": "admin"
  }
},
{
  "pk": 2, 
  "model": "contenttypes.contenttype", 
  "fields": {
    "model": "permission", 
    "name": "permission", 
    "app_label": "auth"
  }
},
{
  "pk": 3, 
  "model": "contenttypes.contenttype", 
  "fields": {
    "model": "group", 
    "name": "group", 
    "app_label": "auth"
  }
},
{
  "pk": 4, 
  "model": "contenttypes.contenttype", 
  "fields": {
    "model": "user", 
    "name": "user", 
    "app_label": "auth"
  }
},
{
  "pk": 5, 
  "model": "contenttypes.contenttype", 
  "fields": {
    "model": "contenttype", 
    "name": "content type", 
    "app_label": "contenttypes"
  }
},
{
  "pk": 6, 
  "model": "contenttypes.contenttype", 
  "fields": {
    "model": "session", 
    "name": "session", 
    "app_label": "sessions"
  }
},
{
  "pk": 7, 
  "model": "contenttypes.contenttype", 
  "fields": {
    "model": "migrationhistory", 
    "name": "migration history", 
    "app_label": "south"
  }
},
{
  "pk": 8, 
  "model": "contenttypes.contenttype", 
  "fields": {
    "model": "order", 
    "name": "order", 
    "app_label": "ordering"
  }
},
{
  "pk": 9, 
  "model": "contenttypes.contenttype", 
  "fields": {
    "model": "salereport", 
    "name": "sale report", 
    "app_label": "pos"
  }
},
{
  "pk": 10, 
  "model": "contenttypes.contenttype", 
  "fields": {
    "model": "book", 
    "name": "book", 
    "app_label": "stock"
  }
},
{
  "pk": 11, 
  "model": "contenttypes.contenttype", 
  "fields": {
    "model": "author", 
    "name": "author", 
    "app_label": "stock"
  }
},
{
  "pk": 12, 
  "model": "contenttypes.contenttype", 
  "fields": {
    "model": "stock", 
    "name": "stock", 
    "app_label": "stock"
  }
},
{
  "pk": "gnxwpwtstc4nr9rl4fwqnjwarnt0xquk", 
  "model": "sessions.session", 
  "fields": {
    "expire_date": "2014-07-08T14:45:51Z", 
    "session_data": "MDQ4NGQ2M2M1NzI3ZDRiZWJhZGYzYzVjMmYyMjE0MDQyZTE5OTRlOTp7Il9hdXRoX3VzZXJfYmFja2VuZCI6ImRqYW5nby5jb250cmliLmF1dGguYmFja2VuZHMuTW9kZWxCYWNrZW5kIiwiX2F1dGhfdXNlcl9pZCI6MX0="
  }
},
{
  "pk": 1, 
  "model": "south.migrationhistory", 
  "fields": {
    "applied": "2014-06-24T14:45:23Z", 
    "app_name": "ordering", 
    "migration": "0001_initial"
  }
},
{
  "pk": 2, 
  "model": "south.migrationhistory", 
  "fields": {
    "applied": "2014-06-24T14:45:23Z", 
    "app_name": "pos", 
    "migration": "0001_initial"
  }
},
{
  "pk": 3, 
  "model": "south.migrationhistory", 
  "fields": {
    "applied": "2014-06-24T14:45:23Z", 
    "app_name": "stock", 
    "migration": "0001_initial"
  }
},
{
  "pk": 1, 
  "model": "stock.book", 
  "fields": {
    "price": 9.13, 
    "quatity": 100, 
    "name": "The Fault in Our Stars", 
    "author": 1
  }
},
{
  "pk": 2, 
  "model": "stock.book", 
  "fields": {
    "price": 12.13, 
    "quatity": 1000, 
    "name": "Green Smoothie Cleanse", 
    "author": 2
  }
},
{
  "pk": 3, 
  "model": "stock.book", 
  "fields": {
    "price": 19.02, 
    "quatity": 100, 
    "name": "The Clintons", 
    "author": 3
  }
},
{
  "pk": 4, 
  "model": "stock.book", 
  "fields": {
    "price": 31.3, 
    "quatity": 100, 
    "name": "Game of Thron", 
    "author": 4
  }
},
{
  "pk": 5, 
  "model": "stock.book", 
  "fields": {
    "price": 6.39, 
    "quatity": 100, 
    "name": "If I Stay", 
    "author": 5
  }
},
{
  "pk": 6, 
  "model": "stock.book", 
  "fields": {
    "price": 2.36, 
    "quatity": 100, 
    "name": "Frozen Little", 
    "author": 6
  }
},
{
  "pk": 7, 
  "model": "stock.book", 
  "fields": {
    "price": 21.0, 
    "quatity": 100, 
    "name": "Hard Choices", 
    "author": 7
  }
},
{
  "pk": 8, 
  "model": "stock.book", 
  "fields": {
    "price": 8.97, 
    "quatity": 100, 
    "name": "Gone Girl", 
    "author": 8
  }
},
{
  "pk": 9, 
  "model": "stock.book", 
  "fields": {
    "price": 8.94, 
    "quatity": 100, 
    "name": "The Alchemist", 
    "author": 2
  }
},
{
  "pk": 10, 
  "model": "stock.book", 
  "fields": {
    "price": 9.81, 
    "quatity": 100, 
    "name": "Wonder", 
    "author": 2
  }
},
{
  "pk": 11, 
  "model": "stock.book", 
  "fields": {
    "price": 9.6, 
    "quatity": 100, 
    "name": "The Book Theif", 
    "author": 8
  }
},
{
  "pk": 12, 
  "model": "stock.book", 
  "fields": {
    "price": 6.85, 
    "quatity": 100, 
    "name": "Looking for Alaska", 
    "author": 5
  }
},
{
  "pk": 1, 
  "model": "stock.author", 
  "fields": {
    "name": "John Green"
  }
},
{
  "pk": 2, 
  "model": "stock.author", 
  "fields": {
    "name": "J.J. Smith"
  }
},
{
  "pk": 3, 
  "model": "stock.author", 
  "fields": {
    "name": "Edward Klein"
  }
},
{
  "pk": 4, 
  "model": "stock.author", 
  "fields": {
    "name": "George R. R. Martin"
  }
},
{
  "pk": 5, 
  "model": "stock.author", 
  "fields": {
    "name": "Gayle Forman"
  }
},
{
  "pk": 6, 
  "model": "stock.author", 
  "fields": {
    "name": "Victoria Saxon"
  }
},
{
  "pk": 7, 
  "model": "stock.author", 
  "fields": {
    "name": "Hillary Rodham Clinton"
  }
},
{
  "pk": 8, 
  "model": "stock.author", 
  "fields": {
    "name": "Gillian Flynn"
  }
},
{
  "pk": 1, 
  "model": "auth.permission", 
  "fields": {
    "codename": "add_logentry", 
    "name": "Can add log entry", 
    "content_type": 1
  }
},
{
  "pk": 2, 
  "model": "auth.permission", 
  "fields": {
    "codename": "change_logentry", 
    "name": "Can change log entry", 
    "content_type": 1
  }
},
{
  "pk": 3, 
  "model": "auth.permission", 
  "fields": {
    "codename": "delete_logentry", 
    "name": "Can delete log entry", 
    "content_type": 1
  }
},
{
  "pk": 4, 
  "model": "auth.permission", 
  "fields": {
    "codename": "add_permission", 
    "name": "Can add permission", 
    "content_type": 2
  }
},
{
  "pk": 5, 
  "model": "auth.permission", 
  "fields": {
    "codename": "change_permission", 
    "name": "Can change permission", 
    "content_type": 2
  }
},
{
  "pk": 6, 
  "model": "auth.permission", 
  "fields": {
    "codename": "delete_permission", 
    "name": "Can delete permission", 
    "content_type": 2
  }
},
{
  "pk": 7, 
  "model": "auth.permission", 
  "fields": {
    "codename": "add_group", 
    "name": "Can add group", 
    "content_type": 3
  }
},
{
  "pk": 8, 
  "model": "auth.permission", 
  "fields": {
    "codename": "change_group", 
    "name": "Can change group", 
    "content_type": 3
  }
},
{
  "pk": 9, 
  "model": "auth.permission", 
  "fields": {
    "codename": "delete_group", 
    "name": "Can delete group", 
    "content_type": 3
  }
},
{
  "pk": 10, 
  "model": "auth.permission", 
  "fields": {
    "codename": "add_user", 
    "name": "Can add user", 
    "content_type": 4
  }
},
{
  "pk": 11, 
  "model": "auth.permission", 
  "fields": {
    "codename": "change_user", 
    "name": "Can change user", 
    "content_type": 4
  }
},
{
  "pk": 12, 
  "model": "auth.permission", 
  "fields": {
    "codename": "delete_user", 
    "name": "Can delete user", 
    "content_type": 4
  }
},
{
  "pk": 13, 
  "model": "auth.permission", 
  "fields": {
    "codename": "add_contenttype", 
    "name": "Can add content type", 
    "content_type": 5
  }
},
{
  "pk": 14, 
  "model": "auth.permission", 
  "fields": {
    "codename": "change_contenttype", 
    "name": "Can change content type", 
    "content_type": 5
  }
},
{
  "pk": 15, 
  "model": "auth.permission", 
  "fields": {
    "codename": "delete_contenttype", 
    "name": "Can delete content type", 
    "content_type": 5
  }
},
{
  "pk": 16, 
  "model": "auth.permission", 
  "fields": {
    "codename": "add_session", 
    "name": "Can add session", 
    "content_type": 6
  }
},
{
  "pk": 17, 
  "model": "auth.permission", 
  "fields": {
    "codename": "change_session", 
    "name": "Can change session", 
    "content_type": 6
  }
},
{
  "pk": 18, 
  "model": "auth.permission", 
  "fields": {
    "codename": "delete_session", 
    "name": "Can delete session", 
    "content_type": 6
  }
},
{
  "pk": 19, 
  "model": "auth.permission", 
  "fields": {
    "codename": "add_migrationhistory", 
    "name": "Can add migration history", 
    "content_type": 7
  }
},
{
  "pk": 20, 
  "model": "auth.permission", 
  "fields": {
    "codename": "change_migrationhistory", 
    "name": "Can change migration history", 
    "content_type": 7
  }
},
{
  "pk": 21, 
  "model": "auth.permission", 
  "fields": {
    "codename": "delete_migrationhistory", 
    "name": "Can delete migration history", 
    "content_type": 7
  }
},
{
  "pk": 22, 
  "model": "auth.permission", 
  "fields": {
    "codename": "add_order", 
    "name": "Can add order", 
    "content_type": 8
  }
},
{
  "pk": 23, 
  "model": "auth.permission", 
  "fields": {
    "codename": "change_order", 
    "name": "Can change order", 
    "content_type": 8
  }
},
{
  "pk": 24, 
  "model": "auth.permission", 
  "fields": {
    "codename": "delete_order", 
    "name": "Can delete order", 
    "content_type": 8
  }
},
{
  "pk": 25, 
  "model": "auth.permission", 
  "fields": {
    "codename": "add_salereport", 
    "name": "Can add sale report", 
    "content_type": 9
  }
},
{
  "pk": 26, 
  "model": "auth.permission", 
  "fields": {
    "codename": "change_salereport", 
    "name": "Can change sale report", 
    "content_type": 9
  }
},
{
  "pk": 27, 
  "model": "auth.permission", 
  "fields": {
    "codename": "delete_salereport", 
    "name": "Can delete sale report", 
    "content_type": 9
  }
},
{
  "pk": 28, 
  "model": "auth.permission", 
  "fields": {
    "codename": "add_book", 
    "name": "Can add book", 
    "content_type": 10
  }
},
{
  "pk": 29, 
  "model": "auth.permission", 
  "fields": {
    "codename": "change_book", 
    "name": "Can change book", 
    "content_type": 10
  }
},
{
  "pk": 30, 
  "model": "auth.permission", 
  "fields": {
    "codename": "delete_book", 
    "name": "Can delete book", 
    "content_type": 10
  }
},
{
  "pk": 31, 
  "model": "auth.permission", 
  "fields": {
    "codename": "add_author", 
    "name": "Can add author", 
    "content_type": 11
  }
},
{
  "pk": 32, 
  "model": "auth.permission", 
  "fields": {
    "codename": "change_author", 
    "name": "Can change author", 
    "content_type": 11
  }
},
{
  "pk": 33, 
  "model": "auth.permission", 
  "fields": {
    "codename": "delete_author", 
    "name": "Can delete author", 
    "content_type": 11
  }
},
{
  "pk": 34, 
  "model": "auth.permission", 
  "fields": {
    "codename": "add_stock", 
    "name": "Can add stock", 
    "content_type": 12
  }
},
{
  "pk": 35, 
  "model": "auth.permission", 
  "fields": {
    "codename": "change_stock", 
    "name": "Can change stock", 
    "content_type": 12
  }
},
{
  "pk": 36, 
  "model": "auth.permission", 
  "fields": {
    "codename": "delete_stock", 
    "name": "Can delete stock", 
    "content_type": 12
  }
},
{
  "pk": 1, 
  "model": "auth.user", 
  "fields": {
    "username": "admin", 
    "first_name": "", 
    "last_name": "", 
    "is_active": true, 
    "is_superuser": true, 
    "is_staff": true, 
    "last_login": "2014-06-24T14:45:51Z", 
    "groups": [], 
    "user_permissions": [], 
    "password": "pbkdf2_sha256$12000$zfmQ4LEcdDi8$NiFNl7roaphf81MvO8KymSk9KhDAxbjuSyHk4zltDbE=", 
    "email": "admin@admin.com", 
    "date_joined": "2014-06-24T14:45:05Z"
  }
},
{
  "pk": 1, 
  "model": "admin.logentry", 
  "fields": {
    "action_flag": 1, 
    "action_time": "2014-06-24T14:48:55Z", 
    "object_repr": "John Green", 
    "object_id": "1", 
    "change_message": "", 
    "user": 1, 
    "content_type": 11
  }
},
{
  "pk": 2, 
  "model": "admin.logentry", 
  "fields": {
    "action_flag": 1, 
    "action_time": "2014-06-24T14:49:00Z", 
    "object_repr": "The Fault in Our Stars", 
    "object_id": "1", 
    "change_message": "", 
    "user": 1, 
    "content_type": 10
  }
},
{
  "pk": 5, 
  "model": "admin.logentry", 
  "fields": {
    "action_flag": 1, 
    "action_time": "2014-06-24T14:49:57Z", 
    "object_repr": "J.J. Smith", 
    "object_id": "2", 
    "change_message": "", 
    "user": 1, 
    "content_type": 11
  }
},
{
  "pk": 6, 
  "model": "admin.logentry", 
  "fields": {
    "action_flag": 1, 
    "action_time": "2014-06-24T14:50:07Z", 
    "object_repr": "Green Smoothie Cleanse", 
    "object_id": "2", 
    "change_message": "", 
    "user": 1, 
    "content_type": 10
  }
},
{
  "pk": 7, 
  "model": "admin.logentry", 
  "fields": {
    "action_flag": 1, 
    "action_time": "2014-06-24T14:50:39Z", 
    "object_repr": "Edward Klein", 
    "object_id": "3", 
    "change_message": "", 
    "user": 1, 
    "content_type": 11
  }
},
{
  "pk": 8, 
  "model": "admin.logentry", 
  "fields": {
    "action_flag": 1, 
    "action_time": "2014-06-24T14:50:41Z", 
    "object_repr": "The Clintons", 
    "object_id": "3", 
    "change_message": "", 
    "user": 1, 
    "content_type": 10
  }
},
{
  "pk": 9, 
  "model": "admin.logentry", 
  "fields": {
    "action_flag": 1, 
    "action_time": "2014-06-24T14:51:17Z", 
    "object_repr": "George R. R. Martin", 
    "object_id": "4", 
    "change_message": "", 
    "user": 1, 
    "content_type": 11
  }
},
{
  "pk": 10, 
  "model": "admin.logentry", 
  "fields": {
    "action_flag": 1, 
    "action_time": "2014-06-24T14:51:19Z", 
    "object_repr": "Game of Thron", 
    "object_id": "4", 
    "change_message": "", 
    "user": 1, 
    "content_type": 10
  }
},
{
  "pk": 11, 
  "model": "admin.logentry", 
  "fields": {
    "action_flag": 1, 
    "action_time": "2014-06-24T14:51:46Z", 
    "object_repr": "Gayle Forman", 
    "object_id": "5", 
    "change_message": "", 
    "user": 1, 
    "content_type": 11
  }
},
{
  "pk": 12, 
  "model": "admin.logentry", 
  "fields": {
    "action_flag": 1, 
    "action_time": "2014-06-24T14:51:47Z", 
    "object_repr": "If I Stay", 
    "object_id": "5", 
    "change_message": "", 
    "user": 1, 
    "content_type": 10
  }
},
{
  "pk": 13, 
  "model": "admin.logentry", 
  "fields": {
    "action_flag": 1, 
    "action_time": "2014-06-24T14:52:19Z", 
    "object_repr": "Victoria Saxon", 
    "object_id": "6", 
    "change_message": "", 
    "user": 1, 
    "content_type": 11
  }
},
{
  "pk": 14, 
  "model": "admin.logentry", 
  "fields": {
    "action_flag": 1, 
    "action_time": "2014-06-24T14:52:21Z", 
    "object_repr": "Frozen Little", 
    "object_id": "6", 
    "change_message": "", 
    "user": 1, 
    "content_type": 10
  }
},
{
  "pk": 15, 
  "model": "admin.logentry", 
  "fields": {
    "action_flag": 1, 
    "action_time": "2014-06-24T14:52:49Z", 
    "object_repr": "Hillary Rodham Clinton", 
    "object_id": "7", 
    "change_message": "", 
    "user": 1, 
    "content_type": 11
  }
},
{
  "pk": 16, 
  "model": "admin.logentry", 
  "fields": {
    "action_flag": 1, 
    "action_time": "2014-06-24T14:52:50Z", 
    "object_repr": "Hard Choices", 
    "object_id": "7", 
    "change_message": "", 
    "user": 1, 
    "content_type": 10
  }
},
{
  "pk": 17, 
  "model": "admin.logentry", 
  "fields": {
    "action_flag": 1, 
    "action_time": "2014-06-24T14:53:19Z", 
    "object_repr": "Gillian Flynn", 
    "object_id": "8", 
    "change_message": "", 
    "user": 1, 
    "content_type": 11
  }
},
{
  "pk": 18, 
  "model": "admin.logentry", 
  "fields": {
    "action_flag": 1, 
    "action_time": "2014-06-24T14:53:20Z", 
    "object_repr": "Gone Girl", 
    "object_id": "8", 
    "change_message": "", 
    "user": 1, 
    "content_type": 10
  }
},
{
  "pk": 19, 
  "model": "admin.logentry", 
  "fields": {
    "action_flag": 1, 
    "action_time": "2014-06-24T14:53:39Z", 
    "object_repr": "The Alchemist", 
    "object_id": "9", 
    "change_message": "", 
    "user": 1, 
    "content_type": 10
  }
},
{
  "pk": 20, 
  "model": "admin.logentry", 
  "fields": {
    "action_flag": 1, 
    "action_time": "2014-06-24T14:53:56Z", 
    "object_repr": "Wonder", 
    "object_id": "10", 
    "change_message": "", 
    "user": 1, 
    "content_type": 10
  }
},
{
  "pk": 21, 
  "model": "admin.logentry", 
  "fields": {
    "action_flag": 1, 
    "action_time": "2014-06-24T14:54:21Z", 
    "object_repr": "The Book Theif", 
    "object_id": "11", 
    "change_message": "", 
    "user": 1, 
    "content_type": 10
  }
},
{
  "pk": 22, 
  "model": "admin.logentry", 
  "fields": {
    "action_flag": 1, 
    "action_time": "2014-06-24T14:54:42Z", 
    "object_repr": "Looking for Alaska", 
    "object_id": "12", 
    "change_message": "", 
    "user": 1, 
    "content_type": 10
  }
}
]
